PCBNEW-LibModule-V1  2020-04-03 06:25:22
# encoding utf-8
Units mm
$INDEX
BNX002-01
$EndINDEX
$MODULE BNX002-01
Po 0 0 0 15 5e86c8c2 00000000 ~~
Li BNX002-01
Cd BNX002-01
Kw Filter
Sc 0
At STD
AR 
Op 0 0 0
T0 -0.30362 -0.0126 1.27 1.27 0 0.254 N V 21 N "FL**"
T1 -0.30362 -0.0126 1.27 1.27 0 0.254 N I 21 N "BNX002-01"
DS -6 -5.5 6 -5.5 0.2 24
DS 6 -5.5 6 5.5 0.2 24
DS 6 5.5 -6 5.5 0.2 24
DS -6 5.5 -6 -5.5 0.2 24
DS -6 5.5 -6 -5.5 0.2 21
DS -6 -5.5 6 -5.5 0.2 21
DS 6 -5.5 6 5.5 0.2 21
DS 6 5.5 -6 5.5 0.2 21
DC -2.64 6.079 -2.70223 6.079 0.254 21
$PAD
Po -2.5 2.5
Sh "1" C 1.8 1.8 0 0 900
Dr 1.2 0 0
At STD N 00E0FFFF
Ne 0 ""
$EndPAD
$PAD
Po -2.5 -2.5
Sh "2" C 1.8 1.8 0 0 900
Dr 1.2 0 0
At STD N 00E0FFFF
Ne 0 ""
$EndPAD
$PAD
Po 0 0
Sh "3" C 1.8 1.8 0 0 900
Dr 1.2 0 0
At STD N 00E0FFFF
Ne 0 ""
$EndPAD
$PAD
Po 2.5 2.5
Sh "4" C 1.8 1.8 0 0 900
Dr 1.2 0 0
At STD N 00E0FFFF
Ne 0 ""
$EndPAD
$PAD
Po 2.5 -2.5
Sh "5" C 1.8 1.8 0 0 900
Dr 1.2 0 0
At STD N 00E0FFFF
Ne 0 ""
$EndPAD
$PAD
Po 5 0
Sh "6" C 1.8 1.8 0 0 900
Dr 1.2 0 0
At STD N 00E0FFFF
Ne 0 ""
$EndPAD
$EndMODULE BNX002-01
$EndLIBRARY
