EESchema Schematic File Version 5
EELAYER 33 0
EELAYER END
$Descr A4 11693 8268
encoding utf-8
Sheet 2 3
Title ""
Date ""
Rev ""
Comp ""
Comment1 ""
Comment2 ""
Comment3 ""
Comment4 ""
Comment5 ""
Comment6 ""
Comment7 ""
Comment8 ""
Comment9 ""
$EndDescr
Connection ~ 6250 2150
Connection ~ 6350 1850
Connection ~ 6450 1750
Connection ~ 6150 1200
Connection ~ 6250 1200
Connection ~ 6350 1200
Connection ~ 6150 2500
Connection ~ 5850 3500
Connection ~ 5950 3400
Connection ~ 6050 3300
Connection ~ 6150 3200
NoConn ~ 6150 1650
Entry Wire Line
	2400 1150 2500 1050
Entry Wire Line
	2400 1250 2500 1150
Entry Wire Line
	2400 1350 2500 1250
Entry Wire Line
	2400 1450 2500 1350
Entry Wire Line
	2400 1550 2500 1450
Entry Wire Line
	2400 1650 2500 1550
Entry Wire Line
	2400 1750 2500 1650
Entry Wire Line
	2400 1850 2500 1750
Entry Wire Line
	2400 1950 2500 1850
Entry Wire Line
	2400 2050 2500 1950
Entry Wire Line
	2400 2150 2500 2050
Entry Wire Line
	2400 2250 2500 2150
Entry Wire Line
	2400 2350 2500 2250
Entry Wire Line
	2400 2450 2500 2350
Entry Wire Line
	2400 2550 2500 2450
Entry Wire Line
	2400 2650 2500 2550
Entry Wire Line
	2400 3150 2500 3050
Entry Wire Line
	2400 3250 2500 3150
Entry Wire Line
	2400 3350 2500 3250
Entry Wire Line
	2400 3450 2500 3350
Entry Wire Line
	2400 3550 2500 3450
Entry Wire Line
	2400 3650 2500 3550
Entry Wire Line
	2400 3750 2500 3650
Entry Wire Line
	2400 3850 2500 3750
Entry Wire Line
	2400 3950 2500 3850
Entry Wire Line
	2400 4050 2500 3950
Entry Wire Line
	2400 4150 2500 4050
Entry Wire Line
	2400 4250 2500 4150
Entry Wire Line
	2400 4350 2500 4250
Entry Wire Line
	2400 4450 2500 4350
Entry Wire Line
	2400 4550 2500 4450
Entry Wire Line
	2400 4650 2500 4550
Entry Wire Line
	2400 5250 2500 5150
Entry Wire Line
	2400 5350 2500 5250
Entry Wire Line
	2400 5450 2500 5350
Entry Wire Line
	2400 5550 2500 5450
Wire Wire Line
	2250 1150 2400 1150
Wire Wire Line
	2250 1250 2400 1250
Wire Wire Line
	2250 1350 2400 1350
Wire Wire Line
	2250 1450 2400 1450
Wire Wire Line
	2250 1550 2400 1550
Wire Wire Line
	2250 1650 2400 1650
Wire Wire Line
	2250 1750 2400 1750
Wire Wire Line
	2250 1850 2400 1850
Wire Wire Line
	2250 1950 2400 1950
Wire Wire Line
	2250 2050 2400 2050
Wire Wire Line
	2250 2150 2400 2150
Wire Wire Line
	2250 2250 2400 2250
Wire Wire Line
	2250 2350 2400 2350
Wire Wire Line
	2250 2450 2400 2450
Wire Wire Line
	2250 2550 2400 2550
Wire Wire Line
	2250 2650 2400 2650
Wire Wire Line
	2250 3150 2400 3150
Wire Wire Line
	2250 3250 2400 3250
Wire Wire Line
	2250 3350 2400 3350
Wire Wire Line
	2250 3450 2400 3450
Wire Wire Line
	2250 3550 2400 3550
Wire Wire Line
	2250 3650 2400 3650
Wire Wire Line
	2250 3750 2400 3750
Wire Wire Line
	2250 3850 2400 3850
Wire Wire Line
	2250 3950 2400 3950
Wire Wire Line
	2250 4050 2400 4050
Wire Wire Line
	2250 4150 2400 4150
Wire Wire Line
	2250 4250 2400 4250
Wire Wire Line
	2250 4350 2400 4350
Wire Wire Line
	2250 4450 2400 4450
Wire Wire Line
	2250 4550 2400 4550
Wire Wire Line
	2250 4650 2400 4650
Wire Wire Line
	2250 5250 2400 5250
Wire Wire Line
	2250 5350 2400 5350
Wire Wire Line
	2250 5450 2400 5450
Wire Wire Line
	2250 5550 2400 5550
Wire Wire Line
	2250 5650 2400 5650
Wire Wire Line
	2250 5750 2400 5750
Wire Wire Line
	2250 5850 2400 5850
Wire Wire Line
	2250 5950 2400 5950
Wire Wire Line
	2250 6500 2400 6500
Wire Wire Line
	2250 6600 2400 6600
Wire Wire Line
	2250 6700 2400 6700
Wire Wire Line
	2250 6800 2400 6800
Wire Wire Line
	2250 6900 2400 6900
Wire Wire Line
	2250 7000 2400 7000
Wire Wire Line
	2250 7100 2400 7100
Wire Wire Line
	2250 7200 2400 7200
Wire Wire Line
	5000 950  5250 950 
Wire Wire Line
	5000 1050 5250 1050
Wire Wire Line
	5000 1150 5250 1150
Wire Wire Line
	5000 1250 5250 1250
Wire Wire Line
	5000 1350 5250 1350
Wire Wire Line
	5000 1450 5250 1450
Wire Wire Line
	5000 1550 5250 1550
Wire Wire Line
	5000 1650 5250 1650
Wire Wire Line
	5000 1750 6450 1750
Wire Wire Line
	5000 1850 6350 1850
Wire Wire Line
	5000 1950 6750 1950
Wire Wire Line
	5000 2050 6750 2050
Wire Wire Line
	5000 2150 6250 2150
Wire Wire Line
	5000 2250 5250 2250
Wire Wire Line
	5000 2350 5250 2350
Wire Wire Line
	5000 2450 5250 2450
Wire Wire Line
	5000 2900 5250 2900
Wire Wire Line
	5000 3000 5250 3000
Wire Wire Line
	5000 3100 5250 3100
Wire Wire Line
	5000 3200 6150 3200
Wire Wire Line
	5000 3300 6050 3300
Wire Wire Line
	5000 3400 5950 3400
Wire Wire Line
	5000 3500 5850 3500
Wire Wire Line
	5000 3600 5250 3600
Wire Wire Line
	5000 3700 5250 3700
Wire Wire Line
	5000 3800 5250 3800
Wire Wire Line
	5000 3900 5250 3900
Wire Wire Line
	5000 4000 5250 4000
Wire Wire Line
	5000 4100 5250 4100
Wire Wire Line
	5000 4200 5250 4200
Wire Wire Line
	5000 4400 5250 4400
Wire Wire Line
	5850 2500 5850 2550
Wire Wire Line
	5850 2950 5850 3500
Wire Wire Line
	5850 3500 6200 3500
Wire Wire Line
	5950 2250 5950 2550
Wire Wire Line
	5950 2950 5950 3400
Wire Wire Line
	5950 3400 6200 3400
Wire Wire Line
	6050 2500 6150 2500
Wire Wire Line
	6050 2550 6050 2500
Wire Wire Line
	6050 2950 6050 3300
Wire Wire Line
	6050 3300 6200 3300
Wire Wire Line
	6150 1200 6150 1250
Wire Wire Line
	6150 1200 6250 1200
Wire Wire Line
	6150 2500 6150 2550
Wire Wire Line
	6150 2950 6150 3200
Wire Wire Line
	6150 3200 6200 3200
Wire Wire Line
	6250 1200 6250 1250
Wire Wire Line
	6250 1200 6350 1200
Wire Wire Line
	6250 1650 6250 2150
Wire Wire Line
	6250 2150 6750 2150
Wire Wire Line
	6350 1200 6350 1250
Wire Wire Line
	6350 1200 6450 1200
Wire Wire Line
	6350 1650 6350 1850
Wire Wire Line
	6350 1850 6750 1850
Wire Wire Line
	6450 1250 6450 1200
Wire Wire Line
	6450 1650 6450 1750
Wire Wire Line
	6450 1750 6750 1750
Wire Wire Line
	6450 2250 5950 2250
Wire Wire Line
	6450 2350 6450 2250
Wire Bus Line
	2500 1050 2500 1250
Wire Bus Line
	2500 1250 2500 1450
Wire Bus Line
	2500 1450 2500 1650
Wire Bus Line
	2500 1650 2500 1750
Wire Bus Line
	2500 1750 2500 1950
Wire Bus Line
	2500 1950 2500 2150
Wire Bus Line
	2500 2150 2500 2350
Wire Bus Line
	2500 2350 2500 2550
Wire Bus Line
	2500 3050 2500 3150
Wire Bus Line
	2500 3050 2600 3050
Wire Bus Line
	2500 3150 2500 3350
Wire Bus Line
	2500 3350 2500 3550
Wire Bus Line
	2500 3550 2500 3750
Wire Bus Line
	2500 3750 2500 3850
Wire Bus Line
	2500 3850 2500 4050
Wire Bus Line
	2500 4050 2500 4150
Wire Bus Line
	2500 4150 2500 4350
Wire Bus Line
	2500 4350 2500 4550
Wire Bus Line
	2500 4550 2500 5250
Wire Bus Line
	2500 5250 2500 5450
Wire Bus Line
	2600 1050 2500 1050
Text Label 2250 1150 0    50   ~ 0
D0
Text Label 2250 1250 0    50   ~ 0
D1
Text Label 2250 1350 0    50   ~ 0
D2
Text Label 2250 1450 0    50   ~ 0
D3
Text Label 2250 1550 0    50   ~ 0
D4
Text Label 2250 1650 0    50   ~ 0
D5
Text Label 2250 1750 0    50   ~ 0
D6
Text Label 2250 1850 0    50   ~ 0
D7
Text Label 2250 1950 0    50   ~ 0
D8
Text Label 2250 2050 0    50   ~ 0
D9
Text Label 2250 2150 0    50   ~ 0
D10
Text Label 2250 2250 0    50   ~ 0
D11
Text Label 2250 2350 0    50   ~ 0
D12
Text Label 2250 2450 0    50   ~ 0
D13
Text Label 2250 2550 0    50   ~ 0
D14
Text Label 2250 2650 0    50   ~ 0
D15
Text Label 2250 3150 0    50   ~ 0
A0
Text Label 2250 3250 0    50   ~ 0
A1
Text Label 2250 3350 0    50   ~ 0
A2
Text Label 2250 3450 0    50   ~ 0
A3
Text Label 2250 3550 0    50   ~ 0
A4
Text Label 2250 3650 0    50   ~ 0
A5
Text Label 2250 3750 0    50   ~ 0
A6
Text Label 2250 3850 0    50   ~ 0
A7
Text Label 2250 3950 0    50   ~ 0
A8
Text Label 2250 4050 0    50   ~ 0
A9
Text Label 2250 4150 0    50   ~ 0
A10
Text Label 2250 4250 0    50   ~ 0
A11
Text Label 2250 4350 0    50   ~ 0
A12
Text Label 2250 4450 0    50   ~ 0
A13
Text Label 2250 4550 0    50   ~ 0
A14
Text Label 2250 4650 0    50   ~ 0
A15
Text Label 2250 5250 0    50   ~ 0
A16
Text Label 2250 5350 0    50   ~ 0
A17
Text Label 2250 5450 0    50   ~ 0
A18
Text Label 2250 5550 0    50   ~ 0
A19
Text HLabel 2400 5650 2    50   Input ~ 0
PST3
Text HLabel 2400 5750 2    50   Input ~ 0
PST4
Text HLabel 2400 5850 2    50   Input ~ 0
PST6
Text HLabel 2400 5950 2    50   Output ~ 0
A23
Text HLabel 2400 6500 2    50   Output ~ 0
CS0
Text HLabel 2400 6600 2    50   Output ~ 0
CS1
Text HLabel 2400 6700 2    50   Output ~ 0
CS2
Text HLabel 2400 6800 2    50   Output ~ 0
CS3
Text HLabel 2400 6900 2    50   Output ~ 0
CS4
Text HLabel 2400 7000 2    50   Output ~ 0
SCLK_SPI_1
Text HLabel 2400 7100 2    50   Output ~ 0
MTSR_SPI_1
Text HLabel 2400 7200 2    50   Input ~ 0
MRST_SPI_1_E
Text HLabel 2600 1050 2    50   Output ~ 0
D[0..15]
Text HLabel 2600 3050 2    50   Output ~ 0
A[0..19]
Text HLabel 5250 950  2    50   Input ~ 0
SPEED_MEASURE
Text HLabel 5250 1050 2    50   Output ~ 0
BRAKE
Text HLabel 5250 1150 2    50   Input ~ 0
DEF-TURB
Text HLabel 5250 1250 2    50   Output ~ 0
ENABLE-TURB
Text HLabel 5250 1350 2    50   Output ~ 0
WDOG
Text HLabel 5250 1450 2    50   Input ~ 0
+3.3V-FAILURE
Text HLabel 5250 1550 2    50   Input ~ 0
+5VREF-FAILURE
Text HLabel 5250 1650 2    50   Input ~ 0
+10VREF-FAILURE
Text HLabel 5250 2250 2    50   Output ~ 0
INV-STOP
Text HLabel 5250 2350 2    50   Output ~ 0
RAP-ALARM
Text HLabel 5250 2450 2    50   Output ~ 0
CMD_ME1
Text HLabel 6750 1750 2    50   Input ~ 0
BUSY-ME1
Text HLabel 6750 1850 2    50   Input ~ 0
BUSY-ME2
Text HLabel 6750 1950 2    50   Input ~ 0
USB_BUSY_E
Text HLabel 6750 2050 2    50   Input ~ 0
BUSY-AFF
Text HLabel 6750 2150 2    50   Input ~ 0
TEST-RAP-ALARM
$Comp
L power:+5V #PWR?
U 1 1 5E9112EF
P 5850 2500
F 0 "#PWR?" H 5850 2350 50  0001 C CNN
F 1 "+5V" H 5865 2673 50  0000 C CNN
F 2 "" H 5850 2500 50  0001 C CNN
F 3 "" H 5850 2500 50  0001 C CNN
	1    5850 2500
	1    0    0    -1  
$EndComp
$Comp
L power:+5V #PWR?
U 1 1 5E900EF9
P 6150 1200
F 0 "#PWR?" H 6150 1050 50  0001 C CNN
F 1 "+5V" H 6165 1373 50  0000 C CNN
F 2 "" H 6150 1200 50  0001 C CNN
F 3 "" H 6150 1200 50  0001 C CNN
	1    6150 1200
	1    0    0    -1  
$EndComp
$Comp
L power:+5V #PWR?
U 1 1 5E9100BA
P 6150 2500
F 0 "#PWR?" H 6150 2350 50  0001 C CNN
F 1 "+5V" H 6165 2673 50  0000 C CNN
F 2 "" H 6150 2500 50  0001 C CNN
F 3 "" H 6150 2500 50  0001 C CNN
	1    6150 2500
	1    0    0    -1  
$EndComp
$Comp
L power:GND #PWR?
U 1 1 5E911FD4
P 6450 2350
F 0 "#PWR?" H 6450 2100 50  0001 C CNN
F 1 "GND" H 6455 2177 50  0000 C CNN
F 2 "" H 6450 2350 50  0001 C CNN
F 3 "" H 6450 2350 50  0001 C CNN
	1    6450 2350
	1    0    0    -1  
$EndComp
$Comp
L Device:R_Pack04 RN?
U 1 1 5E90F641
P 6050 2750
F 0 "RN?" H 6237 2795 50  0000 L CNN
F 1 "R_Pack04" H 6237 2705 50  0000 L CNN
F 2 "" V 6325 2750 50  0001 C CNN
F 3 "~" H 6050 2750 50  0001 C CNN
	1    6050 2750
	1    0    0    -1  
$EndComp
$Comp
L Device:R_Pack04 RN?
U 1 1 5E90CE51
P 6350 1450
F 0 "RN?" H 6537 1495 50  0000 L CNN
F 1 "R_Pack04" H 6537 1405 50  0000 L CNN
F 2 "" V 6625 1450 50  0001 C CNN
F 3 "~" H 6350 1450 50  0001 C CNN
	1    6350 1450
	1    0    0    -1  
$EndComp
$Comp
L CPU_RB0505:C_Pack04 CN?
U 1 1 5E918C34
P 6900 2750
F 0 "CN?" H 7087 2795 50  0000 L CNN
F 1 "C_Pack04" H 7087 2705 50  0000 L CNN
F 2 "" V 7175 2750 50  0001 C CNN
F 3 "" H 6900 2750 50  0001 C CNN
	1    6900 2750
	1    0    0    -1  
$EndComp
$Comp
L CPU_RB0505:ST10F276Z5 U?
U 8 1 5E9C336E
P 8800 1700
F 0 "U?" H 8808 2364 50  0000 C CNN
F 1 "ST10F276Z5" H 8808 2273 50  0000 C CNN
F 2 "Package_QFP:LQFP-144_20x20mm_P0.5mm" H 8850 2050 50  0001 C CNN
F 3 "https://www.st.com/content/ccc/resource/technical/document/datasheet/92/18/5e/9c/68/61/42/f6/CD00115722.pdf/files/CD00115722.pdf/jcr:content/translations/en.CD00115722.pdf" H 7300 2050 50  0001 C CNN
	8    8800 1700
	1    0    0    -1  
$EndComp
$Comp
L CPU_RB0505:ST10F276Z5 U?
U 7 1 5E9BD6D4
P 1550 6850
F 0 "U?" H 1558 7514 50  0000 C CNN
F 1 "ST10F276Z5" H 1558 7423 50  0000 C CNN
F 2 "Package_QFP:LQFP-144_20x20mm_P0.5mm" H 1600 7200 50  0001 C CNN
F 3 "https://www.st.com/content/ccc/resource/technical/document/datasheet/92/18/5e/9c/68/61/42/f6/CD00115722.pdf/files/CD00115722.pdf/jcr:content/translations/en.CD00115722.pdf" H 50  7200 50  0001 C CNN
	7    1550 6850
	1    0    0    -1  
$EndComp
$Comp
L CPU_RB0505:ST10F276Z5 U?
U 9 1 5E9C4E56
P 7500 5250
F 0 "U?" H 7400 4677 50  0000 C CNN
F 1 "ST10F276Z5" H 7400 4586 50  0000 C CNN
F 2 "Package_QFP:LQFP-144_20x20mm_P0.5mm" H 7550 5600 50  0001 C CNN
F 3 "https://www.st.com/content/ccc/resource/technical/document/datasheet/92/18/5e/9c/68/61/42/f6/CD00115722.pdf/files/CD00115722.pdf/jcr:content/translations/en.CD00115722.pdf" H 6000 5600 50  0001 C CNN
	9    7500 5250
	1    0    0    -1  
$EndComp
$Comp
L CPU_RB0505:ST10F276Z5 U?
U 5 1 5E9B574D
P 1400 5600
F 0 "U?" H 1567 6264 50  0000 C CNN
F 1 "ST10F276Z5" H 1567 6173 50  0000 C CNN
F 2 "Package_QFP:LQFP-144_20x20mm_P0.5mm" H 1450 5950 50  0001 C CNN
F 3 "https://www.st.com/content/ccc/resource/technical/document/datasheet/92/18/5e/9c/68/61/42/f6/CD00115722.pdf/files/CD00115722.pdf/jcr:content/translations/en.CD00115722.pdf" H -100 5950 50  0001 C CNN
	5    1400 5600
	1    0    0    -1  
$EndComp
$Comp
L CPU_RB0505:ST10F276Z5 U?
U 1 1 5E9A9669
P 1750 1950
F 0 "U?" H 2045 3064 50  0000 C CNN
F 1 "ST10F276Z5" H 2045 2973 50  0000 C CNN
F 2 "Package_QFP:LQFP-144_20x20mm_P0.5mm" H 1800 2300 50  0001 C CNN
F 3 "https://www.st.com/content/ccc/resource/technical/document/datasheet/92/18/5e/9c/68/61/42/f6/CD00115722.pdf/files/CD00115722.pdf/jcr:content/translations/en.CD00115722.pdf" H 250 2300 50  0001 C CNN
	1    1750 1950
	1    0    0    -1  
$EndComp
$Comp
L CPU_RB0505:ST10F276Z5 U?
U 2 1 5E9ACC06
P 1700 3850
F 0 "U?" H 1755 4864 50  0000 C CNN
F 1 "ST10F276Z5" H 1755 4773 50  0000 C CNN
F 2 "Package_QFP:LQFP-144_20x20mm_P0.5mm" H 1750 4200 50  0001 C CNN
F 3 "https://www.st.com/content/ccc/resource/technical/document/datasheet/92/18/5e/9c/68/61/42/f6/CD00115722.pdf/files/CD00115722.pdf/jcr:content/translations/en.CD00115722.pdf" H 200 4200 50  0001 C CNN
	2    1700 3850
	1    0    0    -1  
$EndComp
$Comp
L CPU_RB0505:ST10F276Z5 U?
U 4 1 5E9B3194
P 4400 3700
F 0 "U?" H 4483 4814 50  0000 C CNN
F 1 "ST10F276Z5" H 4483 4723 50  0000 C CNN
F 2 "Package_QFP:LQFP-144_20x20mm_P0.5mm" H 4450 4050 50  0001 C CNN
F 3 "https://www.st.com/content/ccc/resource/technical/document/datasheet/92/18/5e/9c/68/61/42/f6/CD00115722.pdf/files/CD00115722.pdf/jcr:content/translations/en.CD00115722.pdf" H 2900 4050 50  0001 C CNN
	4    4400 3700
	1    0    0    -1  
$EndComp
$Comp
L CPU_RB0505:ST10F276Z5 U?
U 6 1 5E9B9492
P 4250 5650
F 0 "U?" H 4308 6514 50  0000 C CNN
F 1 "ST10F276Z5" H 4308 6423 50  0000 C CNN
F 2 "Package_QFP:LQFP-144_20x20mm_P0.5mm" H 4300 6000 50  0001 C CNN
F 3 "https://www.st.com/content/ccc/resource/technical/document/datasheet/92/18/5e/9c/68/61/42/f6/CD00115722.pdf/files/CD00115722.pdf/jcr:content/translations/en.CD00115722.pdf" H 2750 6000 50  0001 C CNN
	6    4250 5650
	1    0    0    -1  
$EndComp
$Comp
L CPU_RB0505:ST10F276Z5 U?
U 3 1 5E9AF82E
P 4200 1750
F 0 "U?" H 4255 2814 50  0000 C CNN
F 1 "ST10F276Z5" H 4255 2723 50  0000 C CNN
F 2 "Package_QFP:LQFP-144_20x20mm_P0.5mm" H 4250 2100 50  0001 C CNN
F 3 "https://www.st.com/content/ccc/resource/technical/document/datasheet/92/18/5e/9c/68/61/42/f6/CD00115722.pdf/files/CD00115722.pdf/jcr:content/translations/en.CD00115722.pdf" H 2700 2100 50  0001 C CNN
	3    4200 1750
	1    0    0    -1  
$EndComp
$Comp
L CPU_RB0505:ST10F276Z5 U?
U 10 1 5E9CAC86
P 9700 3850
F 0 "U?" H 9995 4964 50  0000 C CNN
F 1 "ST10F276Z5" H 9995 4873 50  0000 C CNN
F 2 "Package_QFP:LQFP-144_20x20mm_P0.5mm" H 9750 4200 50  0001 C CNN
F 3 "https://www.st.com/content/ccc/resource/technical/document/datasheet/92/18/5e/9c/68/61/42/f6/CD00115722.pdf/files/CD00115722.pdf/jcr:content/translations/en.CD00115722.pdf" H 8200 4200 50  0001 C CNN
	10   9700 3850
	1    0    0    -1  
$EndComp
$EndSCHEMATC
